…
-   Summarize within cities to obtain the total number of homicides and the number of unsolved homicides (those for which the disposition is “Closed without arrest” or “Open/No arrest”).

``` r
wp_murders_df %>% 
  group_by(city, disposition) %>% 
  summarize(n = n()) %>% 
  spread(key = disposition, value = n) %>% 
  janitor::clean_names() %>% 
  mutate(n_unsolved = sum(closed_without_arrest, open_no_arrest, na.rm=TRUE)) %>% 
  mutate(n_homicide = sum(closed_without_arrest, open_no_arrest, closed_by_arrest, na.rm=TRUE)) %>% 
  select(-closed_by_arrest, -closed_without_arrest, -open_no_arrest) %>% 
  arrange(-n_unsolved)
## # A tibble: 50 x 3
## # Groups:   city [50]
##    city         n_unsolved n_homicide
##    <chr>             <int>      <int>
##  1 Chicago            4073       5535
##  2 Baltimore          1825       2827
##  3 Houston            1493       2942
##  4 Detroit            1482       2519
##  5 Philadelphia       1360       3037
##  6 Los Angeles        1106       2257
##  7 New Orleans         930       1434
##  8 St. Louis           905       1677
##  9 Dallas              754       1567
## 10 Jacksonville        597       1168
## # ... with 40 more rows
```
…
-   Now run prop.test for each of the cities in your dataset, and extract both the proportion of unsolved homicides and the confidence interval for each. Do this within a “tidy” pipeline, making use of purrr::map, purrr::map2, list columns and unnest as necessary to create a tidy dataframe with estimated proportions and CIs for each city.

``` r
prop_new = function(x,n){
  output = prop.test(x,n)
  broom::tidy(output)
}

wp_murders_city %>% 
  mutate(prop = map2(n_unsolved,n_homicide, prop_new) ) %>% 
  unnest() %>% 
  select(city, estimate, conf.low, conf.high)
## # A tibble: 50 x 4
##    city        estimate conf.low conf.high
##    <chr>          <dbl>    <dbl>     <dbl>
##  1 Albuquerque    0.386    0.337     0.438
##  2 Atlanta        0.383    0.353     0.415
##  3 Baltimore      0.646    0.628     0.663
##  4 Baton Rouge    0.462    0.414     0.511
##  5 Birmingham     0.434    0.399     0.469
##  6 Boston         0.505    0.465     0.545
##  7 Buffalo        0.612    0.569     0.654
##  8 Charlotte      0.300    0.266     0.336
##  9 Chicago        0.736    0.724     0.747
## 10 Cincinnati     0.445    0.408     0.483
## # ... with 40 more rows
```
…
